Nowak 543 Final
…
# A tibble: 31 × 4
   Site    Female_Count Male_Count Female_to_Male_Ratio
   <chr>          <int>      <int>                <dbl>
 1 Site 1            54         46                1.17 
 2 Site 10           40         60                0.667
 3 Site 11           44         56                0.786
 4 Site 12           46         54                0.852
 5 Site 13           43         57                0.754
 6 Site 14           60         40                1.5  
 7 Site 15           55         45                1.22 
 8 Site 16           47         53                0.887
 9 Site 17           38         62                0.613
10 Site 18           31         69                0.449
# ℹ 21 more rows
…
